@startuml Container Diagram
!include https://raw.githubusercontent.com/plantuml-stdlib/C4-PlantUML/master/C4_Container.puml
!include https://raw.githubusercontent.com/plantuml-stdlib/C4-PlantUML/master/C4_Component.puml

title Container Diagram

Person(developer, "Developer", "builds and stores code on gitlab")
Container(gitlab,"Gitlab","Repository where developers stores their code","gitlab")
Container(webapplication, "Website", "BBC site?")
Container(pipelines,"Pipelines","Manage the code in order to deploy the webapp")
Container(kubernetes,"Containerization Tools","Orchestrate images")
ContainerDb(cloud_storage,"Cloud storage","Google Cloud, IBM Cloud, Microsoft Azure","Stores images/videos/large files")
ContainerDb(cloud_sql,"Cloud SQL","PostgreSQL, MySQL,Azure SQL","Stores user's informations")

Rel(developer,gitlab,"Push Using","[[HTTPS]]")
Rel(gitlab,pipelines,"Using","[[HTTPS]]")
Rel_R(pipelines,kubernetes,"Manage application")
Rel_U(kubernetes,webapplication,"Deploys")
BiRel_U(webapplication,cloud_storage,"Reads from/Writes to")
BiRel_R(webapplication,cloud_sql,"Reads from/Writes to")

@enduml